EDA 62 — Predisposing Variable Profile: Socio-demographics
…
Level counts for predisposing variables

# Level counts for each predisposing variable
data_context_distributions <- purrr::map_dfr(predisposing_vars, function(v) {
  tbl <- ds0 %>%
    count(value = as.character(.data[[v]])) %>%
    mutate(variable = v, label = predisposing_labels[v]) %>%
    arrange(desc(n))
  tbl
})
print(data_context_distributions, n = 40)

# A tibble: 55 × 4
   value                              n variable           label                     
   <chr>                          <int> <chr>              <chr>                     
 1 25-54                          37101 age_group_3        Age group (3 categories)  
 2 55-75                          17080 age_group_3        Age group (3 categories)  
 3 15-24                           9662 age_group_3        Age group (3 categories)  
 4 11                              7760 dhhgage            Age group (detailed)      
 5 10                              7459 dhhgage            Age group (detailed)      
 6 7                               6348 dhhgage            Age group (detailed)      
 7 8                               6290 dhhgage            Age group (detailed)      
 8 5                               5886 dhhgage            Age group (detailed)      
 9 9                               5562 dhhgage            Age group (detailed)      
10 6                               5556 dhhgage            Age group (detailed)      
11 12                              5543 dhhgage            Age group (detailed)      
12 4                               5077 dhhgage            Age group (detailed)      
13 13                              2626 dhhgage            Age group (detailed)      
14 2                               2349 dhhgage            Age group (detailed)      
15 3                               2236 dhhgage            Age group (detailed)      
16 14                              1048 dhhgage            Age group (detailed)      
17 15                               103 dhhgage            Age group (detailed)      
18 Female                         32303 sex                Sex                       
19 Male                           31540 sex                Sex                       
20 Married                        28416 marital_status     Marital status            
21 Single / Never married         19722 marital_status     Marital status            
22 Widowed / Separated / Divorced  8043 marital_status     Marital status            
23 Common-law                      7537 marital_status     Marital status            
24 <NA>                             125 marital_status     Marital status            
25 2 persons                      23684 household_size     Household size            
26 1 person                       14075 household_size     Household size            
27 3 persons                      10709 household_size     Household size            
28 4 persons                      10469 household_size     Household size            
29 5 or more persons               4884 household_size     Household size            
30 <NA>                              22 household_size     Household size            
31 0                              55089 dhhgle5            Children < 5 in household 
32 1                               8754 dhhgle5            Children < 5 in household 
33 0                              54678 dhhg611            Children 6-11 in household
34 1                               9165 dhhg611            Children 6-11 in household
35 Post-secondary graduate        39774 education          Education level           
36 Secondary graduate             11778 education          Education level           
37 Less than secondary             7348 education          Education level           
38 Some post-secondary             4341 education          Education level           
39 <NA>                             602 education          Education level           
40 Non-immigrant (Canadian-born)  55066 immigration_status Immigration status        
# ℹ 15 more rows
…
